[   
  { "name" : "website_overview",
    "dimensions" : 
    [
      "ga:date"
    ],
    "metrics" : 
    [
      "ga:users",
      "ga:newUsers",
      "ga:sessions",
      "ga:sessionsPerUser",
      "ga:avgSessionDuration",
      "ga:pageviews",
      "ga:pageviewsPerSession",
      "ga:avgTimeOnPage",
      "ga:bounceRate",
      "ga:exitRate" 
    ]
  },
  { "name" : "traffic_sources",
    "dimensions" : 
    [
      "ga:date",
      "ga:source",
      "ga:medium",
      "ga:socialNetwork"
    ],
    "metrics" : 
    [
      "ga:users",
      "ga:newUsers",
      "ga:sessions",
      "ga:sessionsPerUser",
      "ga:avgSessionDuration",
      "ga:pageviews",
      "ga:pageviewsPerSession",
      "ga:avgTimeOnPage",
      "ga:bounceRate",
      "ga:exitRate" 
    ]
  },
  { "name" : "pages",
    "dimensions" : 
    [
      "ga:date",
      "ga:hostname",
      "ga:pagePath"
    ],
    "metrics" : 
    [
      "ga:pageviews",
      "ga:uniquePageviews",
      "ga:avgTimeOnPage",
      "ga:entrances",
      "ga:entranceRate",
      "ga:bounceRate",
      "ga:exits",
      "ga:exitRate"
    ]
  },
  { "name" : "locations",
    "dimensions" : 
    [
      "ga:date",
      "ga:continent",
      "ga:subContinent",
      "ga:country",
      "ga:region",
      "ga:metro",
      "ga:city"
    ],
    "metrics" : 
    [
      "ga:users",
      "ga:newUsers",
      "ga:sessions",
      "ga:sessionsPerUser",
      "ga:avgSessionDuration",
      "ga:pageviews",
      "ga:pageviewsPerSession",
      "ga:avgTimeOnPage",
      "ga:bounceRate",
      "ga:exitRate" 
    ]
  },
  { "name" : "monthly_active_users",
    "dimensions" : 
    [
      "ga:date"
    ],
    "metrics" : 
    [
      "ga:30dayUsers"
    ]
  },
  { "name" : "weekly_active_users",
    "dimensions" : 
    [
      "ga:date"
    ],
    "metrics" : 
    [
      "ga:7dayUsers"
    ]
  },
  { "name" : "daily_active_users",
    "dimensions" : 
    [
      "ga:date"
    ],
    "metrics" : 
    [
      "ga:1dayUsers"
    ]
  },
  { "name" : "devices",
    "dimensions" : 
    [
      "ga:date",
      "ga:deviceCategory",
      "ga:operatingSystem",
      "ga:browser"
    ],
    "metrics" : 
    [
      "ga:users",
      "ga:newUsers",
      "ga:sessions",
      "ga:sessionsPerUser",
      "ga:avgSessionDuration",
      "ga:pageviews",
      "ga:pageviewsPerSession",
      "ga:avgTimeOnPage",
      "ga:bounceRate",
      "ga:exitRate" 
    ]
  }
]
